# This file uses centimeters as units for non-parametric coordinates.

mtllib Bridge.mtl
g default
v -920.020447 282.419739 -570.489075
v -920.020386 283.366852 -601.063049
v -800.360779 282.419739 -570.489075
v -800.360840 283.366852 -601.063049
v -919.679688 275.082397 -517.691650
v -800.679016 273.883118 -515.349487
v -929.994202 247.898468 -435.670044
v -814.000610 241.508072 -421.857727
v -985.111511 166.261765 -322.231079
v -870.157166 160.345184 -308.123474
v -1000.083557 27.026995 -189.070312
v -889.283508 26.963388 -213.541046
v -629.925720 -56.597813 38.804386
v -502.257263 10.152128 43.403522
v -616.673218 -56.878635 -75.024574
v -500.402191 9.789158 -72.602402
v -421.204376 50.564667 43.746838
v -421.204376 50.564667 -72.623199
v -793.195435 -110.426933 13.957577
v -750.884521 -109.668198 -91.519684
v -928.438599 -86.853088 -59.172325
v -844.514404 -85.450256 -132.213028
v -802.571472 262.197937 -473.042328
v -956.025879 215.571060 -382.319214
v -840.851685 208.419388 -364.553619
v -1002.178833 99.568092 -257.311615
v -887.566528 96.586563 -258.752563
v -559.566040 -21.222563 42.344650
v -553.817139 -21.655815 -72.810188
v -458.165833 32.868618 43.710861
v -457.830139 32.667538 -72.620483
v -710.950806 -89.457146 30.587290
v -685.517273 -89.269203 -81.072563
v -866.995483 -110.612900 -14.943479
v -803.827576 -109.420761 -107.239380
v -974.335144 -38.370987 -120.028290
v -873.973572 -37.138016 -169.502289
v -920.020386 283.272217 -587.388367
v -800.360840 283.272217 -587.388367
v -919.986328 280.019104 -547.498108
v -800.392578 279.899200 -547.263916
v -920.111328 266.026978 -480.653595
v -806.529724 253.199097 -448.431458
v -800.997375 268.945496 -495.433838
v -941.603638 233.707947 -409.959991
v -971.211487 193.188675 -352.994080
v -856.204529 186.408722 -335.748077
v -826.112488 226.683655 -393.577698
v -995.676575 134.491272 -290.276794
v -1003.890442 63.183048 -223.515945
v -890.513855 61.784725 -235.902756
v -880.696106 129.922256 -282.642242
v -593.190063 -38.787579 41.005886
v -529.204712 -4.657569 43.063175
v -525.776306 -5.074565 -72.582802
v -584.218262 -39.181583 -73.539223
v -478.874725 22.451691 43.608128
v -439.239502 42.030388 43.745846
v -439.145599 41.927402 -72.622856
v -478.001282 22.162371 -72.614296
v -752.584595 -102.043808 23.573523
v -669.621948 -73.897987 35.497906
v -650.875671 -73.973808 -77.520897
v -719.289673 -101.566696 -85.724022
v -899.446228 -101.864143 -34.959229
v -831.455383 -113.375237 1.240371
v -778.993591 -112.375710 -98.504028
v -825.597595 -100.535049 -118.288200
v -990.030212 -7.209213 -154.155029
v -953.603088 -65.303764 -87.948021
v -860.788818 -63.897812 -149.576157
v -883.620911 -6.430915 -191.115738
v -920.020386 283.366852 -594.427246
v -920.020447 282.988037 -579.543335
v -800.360779 282.988037 -579.543335
v -800.360840 283.366852 -594.427246
v -920.020447 281.472656 -559.822632
v -919.884155 277.931549 -533.469727
v -800.488037 277.451843 -532.532837
v -800.360779 281.472656 -559.822632
v -919.338867 271.344055 -500.118103
v -923.246582 258.441620 -459.202759
vt 0.000000 0.950000
vt 0.000000 0.925000
vt 1.000000 0.925000
vt 1.000000 0.950000
vt 1.000000 1.000000
vt 0.000000 1.000000
vt 0.000000 0.975000
vt 1.000000 0.975000
vt 0.000000 0.875000
vt 0.000000 0.850000
vt 1.000000 0.850000
vt 1.000000 0.875000
vt 0.000000 0.825000
vt 0.000000 0.800000
vt 1.000000 0.800000
vt 1.000000 0.825000
vt 0.000000 0.775000
vt 0.000000 0.750000
vt 1.000000 0.750000
vt 1.000000 0.775000
vt 0.000000 0.725000
vt 0.000000 0.700000
vt 1.000000 0.700000
vt 1.000000 0.725000
vt 0.000000 0.675000
vt 0.000000 0.650000
vt 1.000000 0.650000
vt 1.000000 0.675000
vt 0.000000 0.625000
vt 0.000000 0.600000
vt 1.000000 0.600000
vt 1.000000 0.625000
vt 0.000000 0.575000
vt 0.000000 0.550000
vt 1.000000 0.550000
vt 1.000000 0.575000
vt 0.000000 0.525000
vt 0.000000 0.500000
vt 1.000000 0.500000
vt 1.000000 0.525000
vt 0.000000 0.174999
vt 0.000000 0.149999
vt 1.000000 0.149999
vt 1.000000 0.174999
vt 0.000000 0.125000
vt 0.000000 0.100000
vt 1.000000 0.100000
vt 1.000000 0.125000
vt 0.000000 0.075000
vt 0.000000 0.050000
vt 1.000000 0.050000
vt 1.000000 0.075000
vt 0.000000 0.025000
vt 0.000000 0.000000
vt 1.000000 0.000000
vt 1.000000 0.025000
vt 0.000000 0.275000
vt 0.000000 0.250000
vt 1.000000 0.250000
vt 1.000000 0.275000
vt 0.000000 0.224999
vt 0.000000 0.200000
vt 1.000000 0.200000
vt 1.000000 0.224999
vt 0.000000 0.375000
vt 0.000000 0.350000
vt 1.000000 0.350000
vt 1.000000 0.375000
vt 0.000000 0.325000
vt 0.000000 0.300000
vt 1.000000 0.300000
vt 1.000000 0.325000
vt 0.000000 0.475000
vt 0.000000 0.450000
vt 1.000000 0.450000
vt 1.000000 0.475000
vt 0.000000 0.425000
vt 0.000000 0.400000
vt 1.000000 0.400000
vt 1.000000 0.425000
vt 0.000000 0.900000
vt 1.000000 0.900000
vn 0.000000 0.999345 0.036199
vn 0.000000 0.999345 0.036199
vn 0.000000 0.999345 0.036199
vn 0.000000 0.999345 0.036199
vn 0.000000 1.000000 0.000000
vn 0.000000 1.000000 0.000000
vn 0.000000 0.999976 0.006920
vn 0.000000 0.999976 0.006920
vn 0.000204 0.994381 0.105861
vn 0.001093 0.990223 0.139487
vn 0.001095 0.990217 0.139529
vn 0.000204 0.994381 0.105863
vn 0.003074 0.984656 0.174482
vn 0.006270 0.977887 0.209042
vn 0.006313 0.977804 0.209428
vn 0.003086 0.984627 0.174643
vn 0.009567 0.967461 0.252839
vn 0.010261 0.950013 0.312041
vn 0.010320 0.951032 0.308919
vn 0.009562 0.967483 0.252755
vn 0.005647 0.925332 0.379115
vn -0.005333 0.894802 0.446432
vn -0.002788 0.900962 0.433889
vn 0.006478 0.928520 0.371225
vn -0.020752 0.860180 0.509569
vn -0.036172 0.820141 0.571017
vn -0.032358 0.831068 0.555229
vn -0.016690 0.869021 0.494493
vn -0.045809 0.771485 0.634596
vn -0.041902 0.711941 0.700988
vn -0.043907 0.724301 0.688084
vn -0.044209 0.783943 0.619257
vn -0.016027 0.659710 0.751349
vn 0.032101 0.629106 0.776656
vn 0.027359 0.630775 0.775483
vn -0.021042 0.665647 0.745970
vn 0.095477 0.622608 0.776688
vn 0.164651 0.642398 0.748475
vn 0.166887 0.643493 0.747038
vn 0.093590 0.622449 0.777045
vn -0.465968 0.883860 -0.040811
vn -0.485924 0.873529 -0.028712
vn -0.486307 0.873326 -0.028402
vn -0.467050 0.883314 -0.040260
vn -0.493201 0.869713 -0.018790
vn -0.484553 0.874688 -0.011354
vn -0.484372 0.874789 -0.011294
vn -0.493201 0.869716 -0.018638
vn -0.465596 0.884975 -0.006268
vn -0.448102 0.893977 -0.003168
vn -0.448083 0.893986 -0.003165
vn -0.465521 0.885015 -0.006253
vn -0.435425 0.900224 -0.001297
vn -0.430750 0.902471 -0.000573
vn -0.430750 0.902471 -0.000573
vn -0.435422 0.900225 -0.001296
vn -0.249664 0.965651 -0.072021
vn -0.331754 0.940382 -0.074971
vn -0.339954 0.937501 -0.074316
vn -0.264524 0.961571 -0.073547
vn -0.390759 0.918073 -0.066698
vn -0.434252 0.899163 -0.054134
vn -0.436575 0.898089 -0.053283
vn -0.395175 0.916258 -0.065642
vn 0.271555 0.923396 0.271288
vn 0.157959 0.978687 0.131225
vn 0.123149 0.987311 0.100252
vn 0.248412 0.939547 0.235675
vn 0.011181 0.999709 0.021397
vn -0.133791 0.990005 -0.044621
vn -0.159666 0.985766 -0.052642
vn -0.023234 0.999727 0.002517
vn 0.231532 0.679871 0.695822
vn 0.289413 0.725686 0.624196
vn 0.296080 0.732647 0.612834
vn 0.237196 0.683561 0.690277
vn 0.327084 0.781810 0.530839
vn 0.327520 0.849919 0.412758
vn 0.320359 0.866345 0.383166
vn 0.330584 0.793053 0.511646
vn 0.000000 0.998730 0.050380
vn 0.000000 0.997061 0.076617
vn 0.000000 0.997061 0.076617
vn 0.000000 0.998730 0.050380
vn 0.000000 0.999976 0.006920
vn 0.000000 0.999676 0.025442
vn 0.000000 0.999676 0.025442
vn 0.000000 0.999976 0.006920
vn 0.000000 0.997061 0.076617
vn 0.000000 0.997061 0.076617
vn 0.000204 0.994381 0.105861
vn 0.000204 0.994381 0.105863
vn 0.001093 0.990223 0.139487
vn 0.003074 0.984656 0.174482
vn 0.003086 0.984627 0.174643
vn 0.001095 0.990217 0.139529
vn 0.006313 0.977804 0.209428
vn 0.006270 0.977887 0.209042
vn 0.009567 0.967461 0.252839
vn 0.009562 0.967483 0.252755
vn 0.010261 0.950013 0.312041
vn 0.005647 0.925332 0.379115
vn 0.006478 0.928520 0.371225
vn 0.010320 0.951032 0.308919
vn -0.002788 0.900962 0.433889
vn -0.005333 0.894802 0.446432
vn -0.020752 0.860180 0.509569
vn -0.016690 0.869021 0.494493
vn -0.036172 0.820141 0.571017
vn -0.045809 0.771485 0.634596
vn -0.044209 0.783943 0.619257
vn -0.032358 0.831068 0.555229
vn -0.043907 0.724301 0.688084
vn -0.041902 0.711941 0.700988
vn -0.016027 0.659710 0.751349
vn -0.021042 0.665647 0.745970
vn 0.032101 0.629106 0.776656
vn 0.095477 0.622608 0.776688
vn 0.093590 0.622449 0.777045
vn 0.027359 0.630775 0.775483
vn -0.434252 0.899163 -0.054134
vn -0.465968 0.883860 -0.040811
vn -0.467050 0.883314 -0.040260
vn -0.436575 0.898089 -0.053283
vn -0.485924 0.873529 -0.028712
vn -0.493201 0.869713 -0.018790
vn -0.493201 0.869716 -0.018638
vn -0.486307 0.873326 -0.028402
vn -0.484372 0.874789 -0.011294
vn -0.484553 0.874688 -0.011354
vn -0.465596 0.884975 -0.006268
vn -0.465521 0.885015 -0.006253
vn -0.448102 0.893977 -0.003168
vn -0.435425 0.900224 -0.001297
vn -0.435422 0.900225 -0.001296
vn -0.448083 0.893986 -0.003165
vn -0.133791 0.990005 -0.044621
vn -0.249664 0.965651 -0.072021
vn -0.264524 0.961571 -0.073547
vn -0.159666 0.985766 -0.052642
vn -0.331754 0.940382 -0.074971
vn -0.390759 0.918073 -0.066698
vn -0.395175 0.916258 -0.065642
vn -0.339954 0.937501 -0.074316
vn 0.327520 0.849919 0.412758
vn 0.271555 0.923396 0.271288
vn 0.248412 0.939547 0.235675
vn 0.320359 0.866345 0.383166
vn 0.157959 0.978687 0.131225
vn 0.011181 0.999709 0.021397
vn -0.023234 0.999727 0.002517
vn 0.123149 0.987311 0.100252
vn 0.166887 0.643493 0.747038
vn 0.164651 0.642398 0.748475
vn 0.231532 0.679871 0.695822
vn 0.237196 0.683561 0.690277
vn 0.289413 0.725686 0.624196
vn 0.327084 0.781810 0.530839
vn 0.330584 0.793053 0.511646
vn 0.296080 0.732647 0.612834
s off
g Bridge
usemtl initialShadingGroup
f 38/1/1 74/2/2 75/3/3 39/4/4
f 4/5/5 2/6/6 73/7/7 76/8/8
f 77/9/9 40/10/10 41/11/11 80/12/12
f 78/13/13 5/14/14 6/15/15 79/16/16
f 81/17/17 42/18/18 23/19/19 44/20/20
f 82/21/21 7/22/22 8/23/23 43/24/24
f 45/25/25 24/26/26 25/27/27 48/28/28
f 46/29/29 9/30/30 10/31/31 47/32/32
f 49/33/33 26/34/34 27/35/35 52/36/36
f 50/37/37 11/38/38 12/39/39 51/40/40
f 53/41/41 28/42/42 29/43/43 56/44/44
f 54/45/45 14/46/46 16/47/47 55/48/48
f 57/49/49 30/50/50 31/51/51 60/52/52
f 58/53/53 17/54/54 18/55/55 59/56/56
f 61/57/57 32/58/58 33/59/59 64/60/60
f 62/61/61 13/62/62 15/63/63 63/64/64
f 65/65/65 34/66/66 35/67/67 68/68/68
f 66/69/69 19/70/70 20/71/71 67/72/72
f 69/73/73 36/74/74 37/75/75 72/76/76
f 70/77/77 21/78/78 22/79/79 71/80/80
f 74/2/81 1/81/82 3/82/83 75/3/84
f 73/7/85 38/1/86 39/4/87 76/8/88
f 3/82/89 1/81/90 77/9/91 80/12/92
f 40/10/93 78/13/94 79/16/95 41/11/96
f 6/15/97 5/14/98 81/17/99 44/20/100
f 42/18/101 82/21/102 43/24/103 23/19/104
f 8/23/105 7/22/106 45/25/107 48/28/108
f 24/26/109 46/29/110 47/32/111 25/27/112
f 10/31/113 9/30/114 49/33/115 52/36/116
f 26/34/117 50/37/118 51/40/119 27/35/120
f 13/62/121 53/41/122 56/44/123 15/63/124
f 28/42/125 54/45/126 55/48/127 29/43/128
f 16/47/129 14/46/130 57/49/131 60/52/132
f 30/50/133 58/53/134 59/56/135 31/51/136
f 19/70/137 61/57/138 64/60/139 20/71/140
f 32/58/141 62/61/142 63/64/143 33/59/144
f 21/78/145 65/65/146 68/68/147 22/79/148
f 34/66/149 66/69/150 67/72/151 35/67/152
f 12/39/153 11/38/154 69/73/155 72/76/156
f 36/74/157 70/77/158 71/80/159 37/75/160
